mirroring_add 1 1
mirroring_add 2 2
mirroring_add 3 3
table_add t_hub a_hub 1 => 1 3
table_add t_next a_next 1 3 => 2
table_add t_next _no_op 1 2 =>
table_add t_hub a_hub 2 => 2 3
table_add t_next a_next 2 3 => 1
table_add t_next _no_op 2 1 =>
table_add t_hub a_hub 3 => 3 1
table_add t_next a_next 3 1 => 2
table_add t_next _no_op 3 2 =>
